Data101 Project 2
…
which(is.na(LA_Airport_Source))

## integer(0)

which(!complete.cases(LA_Airport_Source))

## integer(0)

Remove DataExtractDate column

LA_Airport_Modified <- LA_Airport_Source %>% select(ReportPeriod,Terminal,Arrival_Departure,Domestic_International,Passenger_Count) 

LA_Airport_Modified

## # A tibble: 5,870 x 5
##    ReportPeriod  Terminal Arrival_Departu Domestic_Intern Passenger_Count
##    <chr>         <chr>    <chr>            <chr>                      <dbl>
##  1 01/01/2006 1 Imperia Arrival          Domestic                     490
##  2 01/01/2006 1 Imperia Departure        Domestic                     498
##  3 01/01/2006 1 Misc. T Arrival          Domestic                     753
##  4 01/01/2006 1 Misc. T Departure        Domestic                     688
##  5 01/01/2006 1 Termina Arrival          Domestic                  401535
##  6 01/01/2006 1 Termina Departure        Domestic                  389745
##  7 01/01/2006 1 Termina Departure        International                561
##  8 01/01/2006 1 Termina Arrival          Domestic                   98991
##  9 01/01/2006 1 Termina Arrival          International             163067
## 10 01/01/2006 1 Termina Departure        Domestic                   93672
## #  with 5,860 more rows

Split the ReportPeriod column and remove the time.Remove data for the year 2019 as it is incomplete.

LA_Airport_Modified$ReportPeriod <-  as.Date(LA_Airport_Modified$ReportPeriod, "%m/%d/%Y")

LA_Airport_Modified <- LA_Airport_Modified %>%
  mutate(Year = format(ReportPeriod, "%Y"),Month = format(ReportPeriod, "%m")) 

LA_Airport_Modified$Year <- as.numeric(LA_Airport_Modified$Year)

LA_Airport_Modified$Month <- as.numeric(LA_Airport_Modified$Month)

LA_Airport_Modified

## # A tibble: 5,870 x 7
##    ReportPeriod Terminal Arrival_Departu Domestic_Intern Passenger_Count
##    <date>       <chr>    <chr>            <chr>                      <dbl>
##  1 2006-01-01   Imperia Arrival          Domestic                     490
##  2 2006-01-01   Imperia Departure        Domestic                     498
##  3 2006-01-01   Misc. T Arrival          Domestic                     753
##  4 2006-01-01   Misc. T Departure        Domestic                     688
##  5 2006-01-01   Termina Arrival          Domestic                  401535
##  6 2006-01-01   Termina Departure        Domestic                  389745
##  7 2006-01-01   Termina Departure        International                561
##  8 2006-01-01   Termina Arrival          Domestic                   98991
##  9 2006-01-01   Termina Arrival          International             163067
## 10 2006-01-01   Termina Departure        Domestic                   93672
## #  with 5,860 more rows, and 2 more variables: Year <dbl>, Month <dbl>

LA_Airport_Mod <-  LA_Airport_Modified %>%
filter(Year !=  2019)

LA_Airport_Mod

## # A tibble: 5,755 x 7
##    ReportPeriod Terminal Arrival_Departu Domestic_Intern Passenger_Count
##    <date>       <chr>    <chr>            <chr>                      <dbl>
##  1 2006-01-01   Imperia Arrival          Domestic                     490
##  2 2006-01-01   Imperia Departure        Domestic                     498
##  3 2006-01-01   Misc. T Arrival          Domestic                     753
##  4 2006-01-01   Misc. T Departure        Domestic                     688
##  5 2006-01-01   Termina Arrival          Domestic                  401535
##  6 2006-01-01   Termina Departure        Domestic                  389745
##  7 2006-01-01   Termina Departure        International                561
##  8 2006-01-01   Termina Arrival          Domestic                   98991
##  9 2006-01-01   Termina Arrival          International             163067
## 10 2006-01-01   Termina Departure        Domestic                   93672
## #  with 5,745 more rows, and 2 more variables: Year <dbl>, Month <dbl>
…
Calculate the sum of passenger counts per terminal per year per month.

Monthwise_Data <- LA_Airport_Mod %>%
  select(Terminal,Year,Month,Passenger_Count) %>%
  group_by(Terminal,Year,Month) %>%
  summarize(Passenger_sum = sum(Passenger_Count)) %>%
arrange(desc(Passenger_sum))

Monthwise_Data

## # A tibble: 1,607 x 4
## # Groups:   Terminal, Year [141]
##    Terminal                            Year Month Passenger_sum
##    <fct>                              <dbl> <dbl>         <dbl>
##  1 Tom_Bradley_International_Terminal  2018     7       1732646
##  2 Tom_Bradley_International_Terminal  2017     7       1704582
##  3 Tom_Bradley_International_Terminal  2018     8       1678943
##  4 Tom_Bradley_International_Terminal  2017     8       1661321
##  5 Tom_Bradley_International_Terminal  2018     6       1622010
##  6 Tom_Bradley_International_Terminal  2017     6       1557537
##  7 Tom_Bradley_International_Terminal  2018     5       1524485
##  8 Tom_Bradley_International_Terminal  2018     1       1462047
##  9 Tom_Bradley_International_Terminal  2018    10       1461613
## 10 Tom_Bradley_International_Terminal  2018    12       1438957
## #  with 1,597 more rows

D_I_perM <- LA_Airport_Mod %>%
  select(Domestic_International,Year,Month,Passenger_Count) %>%
  group_by(Domestic_International,Month) %>%
  summarize(Passenger_sum = sum(Passenger_Count)) %>%
  arrange(desc(Passenger_sum))

D_I_perM

## # A tibble: 24 x 3
## # Groups:   Domestic_International [2]
##    Domestic_International Month Passenger_sum
##    <fct>                  <dbl>         <dbl>
##  1 Domestic                   7      61906670
##  2 Domestic                   8      60324368
##  3 Domestic                   6      58788905
##  4 Domestic                   5      55125367
##  5 Domestic                  12      53722757
##  6 Domestic                  10      53644848
##  7 Domestic                   3      53351960
##  8 Domestic                   4      52372982
##  9 Domestic                  11      51118509
## 10 Domestic                   9      50308403
## #  with 14 more rows
…
ggplot - Tom Brady International Terminal

TB_Monthwise_Data <- LA_Airport_Mod %>%
  select(Terminal,Year,Month,Passenger_Count) %>%
  filter(Terminal == "Tom_Bradley_International_Terminal") %>%
  group_by(Year,Month) %>%
  summarize(Passenger_sum = sum(Passenger_Count)) %>%
  arrange(Year)

TB_Monthwise_Data

## # A tibble: 156 x 3
## # Groups:   Year [13]
##     Year Month Passenger_sum
##    <dbl> <dbl>         <dbl>
##  1  2006     1        774680
##  2  2006     2        627417
##  3  2006     3        729157
##  4  2006     4        753692
##  5  2006     5        793194
##  6  2006     6        836075
##  7  2006     7        912846
##  8  2006     8        875999
##  9  2006     9        709762
## 10  2006    10        692199
## #  with 146 more rows
…
